{"_id":{"$oid":"5ec202b061b5115b7957c6dd"},"email":"kamenik.stepan+4@gmail.com","password":"$2a$08$jOQ9S4R/351gOavK0B2Ziuv5uU0GrHTLx3BtU45/nVxDdnusN5Mje","name":"Štěpán Kameník","mobile":"606316170","admin":true,"tokens":[{"_id":{"$oid":"5ec202b061b5115b7957c6de"},"token":"eyJhbGciOiJIUzI1NiIsInR5cCI6IkpXVCJ9.eyJfaWQiOiI1ZWMyMDJiMDYxYjUxMTViNzk1N2M2ZGQiLCJpYXQiOjE1ODk3NzI5NzZ9.zAygPjrACNtQNurM-YqO3QeaTYDw5Btsa36Agvmtf6c"},{"_id":{"$oid":"5ec2070107eb88a7bee6c4c5"},"token":"eyJhbGciOiJIUzI1NiIsInR5cCI6IkpXVCJ9.eyJfaWQiOiI1ZWMyMDJiMDYxYjUxMTViNzk1N2M2ZGQiLCJpYXQiOjE1ODk3NzQwODF9.nf3hXrQ1rz61ltAHD-msjcJgI45W0XXXWYW3cvxh1Bc"}],"__v":4}
{"_id":{"$oid":"5ec2055461b5115b7957c6f1"},"name":"Štěpán Kameník 111","email":"kamenik.stepan11@gmail.com","mobile":"606316172","password":"$2a$08$PCfjacLK.5WWrCrxWMnUR.Boj0.hWtlTjmZpDY/iJCmDiqj3G3CBy","tokens":[{"_id":{"$oid":"5ec2055461b5115b7957c6f2"},"token":"eyJhbGciOiJIUzI1NiIsInR5cCI6IkpXVCJ9.eyJfaWQiOiI1ZWMyMDU1NDYxYjUxMTViNzk1N2M2ZjEiLCJpYXQiOjE1ODk3NzM2NTJ9.joAD7Y72HIjRkV05qtXFiKeRi-n6Y-ls6tuaBFDQmP4"}],"__v":1}
{"_id":{"$oid":"5ec208af07eb88a7bee6c4c8"},"email":"kamenik.stepan+postman+2@gmail.com","password":"$2a$08$qQ6KyvwjyLBhYfjT5U5hYOl/BVXAswcvHLN5.Z3VL/lMYrtVv4Lqa","name":"Štěpán Kameník+2","mobile":"606316170","admin":true,"tokens":[{"_id":{"$oid":"5ec208af07eb88a7bee6c4c9"},"token":"eyJhbGciOiJIUzI1NiIsInR5cCI6IkpXVCJ9.eyJfaWQiOiI1ZWMyMDhhZjA3ZWI4OGE3YmVlNmM0YzgiLCJpYXQiOjE1ODk3NzQ1MTF9.URn49PCJM5iQSnS_O9PJpxC-mDTr-rAecAUaVxwJ8RI"}],"__v":1}
